Repro_alloc_1
…
repro_total_df

## # A tibble: 25 x 7
## # Groups:   sp [25]
##    sp    mature_frt_mass repro_mass_total repro_mass_per_ repro_mass_per_
##    <chr>           <dbl>            <dbl>            <dbl>            <dbl>
##  1 alch             0.6              0.6          0.00141            0.107
##  2 alse           715.             795.           0.384            142.   
##  3 apei            33.2             45            0.0739             8.06 
##  4 beil           294.             354.           0.487             63.3  
##  5 bros            59.8             97.9          0.351             17.5  
##  6 cecr            18.7           1065.           1.85             191.   
##  7 cord           150.             208.           0.316             37.3  
##  8 guap            35.5            637            2.07             114.   
##  9 guar            47.8             54.5          0.134              9.76 
## 10 guat            10.9             68.1          0.210             12.2  
## #  with 15 more rows, and 2 more variables: repro_mass_per_yr_m2 <dbl>,
## #   repro_output_50_ha <dbl>

leaf_total_df <- mass_data_50haplot %>%
                 left_join(sp_traits, by = "sp") %>%
                 filter(type == "leaf") %>%
                 group_by(sp) %>%
                 mutate(leaf_mass_per_yr = mass * 12 / 67) %>%
                 mutate(leaf_mass_per_yr_m2 = leaf_mass_per_yr / 31) %>%
                 mutate(leaf_output_50_ha = (leaf_mass_per_yr_m2 * 500000 / ba)) %>%
                 select(sp, leaf_mass_per_yr, leaf_mass_per_yr_m2, leaf_output_50_ha) %>%
                 distinct(sp, .keep_all = T)

leaf_total_df

## # A tibble: 26 x 4
## # Groups:   sp [26]
##    sp     leaf_mass_per_yr leaf_mass_per_yr_m2 leaf_output_50_ha
##    <chr>             <dbl>               <dbl>             <dbl>
##  1 alchco             7.09               0.229             9743.
##  2 alsebl           803.                25.9             163129.
##  3 apeime           159.                 5.14             74951.
##  4 beilpe           227.                 7.33            118542.
##  5 brosal           249.                 8.04            120703.
##  6 cecrin           609.                19.6             457337.
##  7 cordbi            86.5                2.79             78482.
##  8 guapst           694.                22.4             851006.
##  9 guargu           153.                 4.95            155253.
## 10 guatdu            35.9                1.16             38194.
## #  with 16 more rows
…
